watermark = "Generated by Pavel Shamis at `date`";
#set label 9999 watermark at screen 0.02,0.98 font "FreeSans, 8"

# set terminal png transparent font courier 10 size 1024,768
# set terminal png size 800,600

# set terminal postscript eps enhanced monochrome "Helvetica" 13
set terminal pdf font "Helvetica,8"
set output "matmult.pdf"

set encoding iso_8859_1
#set title "Matrix Multiply Kernel Performance"
set xlabel "Matrix Size"
set ylabel "Gflops/sec"
#set xrange [1:8]
set xrange [0:4200]
#set xtics (8,16,24,32,40,48,56,64)
#set logscale x
#set logscale y
set key left bottom Right
set key font "Helvetica,6"
set grid
set format x "%3.0fx%3.0f"
set xtic font "Helvetica,5"
set xtic rotate by -45

#set style line 1 linetype 1 linewidth 4 pointtype 2
#set style line 2 linetype 3 linewidth 4 pointtype 3
#set style line 3 linetype 4 linewidth 4 pointtype 4
#set style line 4 linetype 5 linewidth 4 pointtype 5
#set style line 5 linetype 6 linewidth 4 pointtype 6
#set style line 6 linetype 7 linewidth 4 pointtype 7
#set style line 7 linetype 8 linewidth 4 pointtype 8
#set style line 8 linetype 9 linewidth 4 pointtype 9

plot \
    "mat.dat" using 1:5:xtic(2) title "matmultKernel00" with linespoints lw 3, \
    "mat.dat" using 1:8:xtic(2) title "matmultKernel01" with linespoints lw 3
