watermark = "Generated by Pavel Shamis at `date`";
#set label 9999 watermark at screen 0.02,0.98 font "FreeSans, 8"

# set terminal png transparent font courier 10 size 1024,768
# set terminal png size 800,600

# set terminal postscript eps enhanced monochrome "Helvetica" 13
set terminal pdf font "Helvetica,8"
set output "vecadd.pdf"

set encoding iso_8859_1
#set title "Vector Add Kernel Performance"
set xlabel "Vector Size"
set ylabel "Gflops/sec"
set xrange [3500000:63440000]
#set yrange [0:50]
#set xtics (8,16,24,32,40,48,56,64)
#set logscale x
#set logscale y
set key font "Helvetica,6"
set grid
set format x "%4.0f"
set xtic font "Helvetica,5"
set xtic rotate by -45

#set style line 1 linetype 1 linewidth 4 pointtype 2
#set style line 2 linetype 3 linewidth 4 pointtype 3
#set style line 3 linetype 4 linewidth 4 pointtype 4
#set style line 4 linetype 5 linewidth 4 pointtype 5
#set style line 5 linetype 6 linewidth 4 pointtype 6
#set style line 6 linetype 7 linewidth 4 pointtype 7
#set style line 7 linetype 8 linewidth 4 pointtype 8
#set style line 8 linetype 9 linewidth 4 pointtype 9

plot \
    "vec.dat" using 1:3:xtic(1) title "vecAddKernel00" with linespoints lw 3, \
    "vec.dat" using 1:6:xtic(1) title "vecAddKernel01" with linespoints lw 3
